…
race_counties_isolation_indices_block_grps <- 
  race_ethnicity_counties %>% 
  rename(county_fips = fips) %>% 
  left_join(race_counties_aa_isolation_index, by = "county_fips")

race_counties_isolation_indices_block_grps
```

    ## # A tibble: 420 x 13
    ##    county_fips county_name state_name hispanic_latino total_population white
    ##          <int> <chr>       <chr>                <int>            <int> <int>
    ##  1        1007 Bibb        Alabama                547            22527 16801
    ##  2        1009 Blount      Alabama               5261            57645 50232
    ##  3        1015 Calhoun     Alabama               4203           115098 83423
    ##  4        1017 Chambers    Alabama                768            33826 18872
    ##  5        1019 Cherokee    Alabama                398            25853 23730
    ##  6        1021 Chilton     Alabama               3416            43930 35205
    ##  7        1027 Clay        Alabama                415            13378 10740
    ##  8        1029 Cleburne    Alabama                362            14938 13839
    ##  9        1033 Colbert     Alabama               1349            54495 42865
    ## 10        1037 Coosa       Alabama                 50            10855  7084
    ## # … with 410 more rows, and 7 more variables: black <int>,
    ## #   american_indian_alaska_native <int>, asian <int>,
    ## #   native_hawaiian_pacific_islander <int>, other <int>, multiracial <int>,
    ## #   aa_isolation_index <dbl>
…
``` r
race_counties_segregation_indices
```

    ## # A tibble: 420 x 14
    ##    county_fips county_name state_name hispanic_latino total_population white
    ##          <int> <chr>       <chr>                <int>            <int> <int>
    ##  1        1007 Bibb        Alabama                547            22527 16801
    ##  2        1009 Blount      Alabama               5261            57645 50232
    ##  3        1015 Calhoun     Alabama               4203           115098 83423
    ##  4        1017 Chambers    Alabama                768            33826 18872
    ##  5        1019 Cherokee    Alabama                398            25853 23730
    ##  6        1021 Chilton     Alabama               3416            43930 35205
    ##  7        1027 Clay        Alabama                415            13378 10740
    ##  8        1029 Cleburne    Alabama                362            14938 13839
    ##  9        1033 Colbert     Alabama               1349            54495 42865
    ## 10        1037 Coosa       Alabama                 50            10855  7084
    ## # … with 410 more rows, and 8 more variables: black <int>,
    ## #   american_indian_alaska_native <int>, asian <int>,
    ## #   native_hawaiian_pacific_islander <int>, other <int>, multiracial <int>,
    ## #   aa_dissimilarity_index <dbl>, aa_isolation_index <dbl>
…
