…
appalachia_tracts_race %>%
  arrange(desc(prop_nonwhite))
```

    ## # A tibble: 6,107 x 14
    ##    fips  county_fips name  hispanic_latino total_population white black
    ##    <chr>       <int> <chr>           <int>            <int> <int> <int>
    ##  1 0107…        1073 Cens…              50             2744     0  2669
    ##  2 0107…        1073 Cens…              81             2619     0  2538
    ##  3 0107…        1073 Cens…             169             1906     0  1729
    ##  4 0107…        1073 Cens…               0             1960     0  1947
    ##  5 0107…        1073 Cens…               0              969     0   969
    ##  6 4200…       42003 Cens…              38             1292     0  1243
    ##  7 4200…       42003 Cens…               0              170     0   170
    ##  8 0112…        1125 Cens…              22             3194     6  3157
    ##  9 0107…        1073 Cens…              36             1802     9  1757
    ## 10 0108…        1087 Cens…               0             1387     7  1364
    ## # … with 6,097 more rows, and 7 more variables:
    ## #   american_indian_alaska_native <int>, asian <int>,
    ## #   native_hawaiian_pacific_islander <int>, other <int>, multiracial <int>,
    ## #   n_nonwhite <int>, prop_nonwhite <dbl>

``` r
central_appalachia_tracts_race %>%
  arrange(desc(prop_nonwhite))
```

    ## # A tibble: 1,608 x 14
    ##    fips  county_fips name  hispanic_latino total_population white black
    ##    <chr>       <int> <chr>           <int>            <int> <int> <int>
    ##  1 4706…       47065 Cens…               5             3760   251  3424
    ##  2 4706…       47065 Cens…              26             2257   163  2068
    ##  3 4706…       47065 Cens…               0             3792   349  3413
    ##  4 4706…       47065 Cens…              28             2623   287  2263
    ##  5 4706…       47065 Cens…               8             3259   358  2764
    ##  6 4706…       47065 Cens…              11             3231   446  2629
    ##  7 4706…       47065 Cens…             133             3090   474  2340
    ##  8 4709…       47093 Cens…             119             3091   531  2256
    ##  9 2106…       21061 Cens…              34              280    53   133
    ## 10 4706…       47065 Cens…             199             6162  1382  4444
    ## # … with 1,598 more rows, and 7 more variables:
    ## #   american_indian_alaska_native <int>, asian <int>,
    ## #   native_hawaiian_pacific_islander <int>, other <int>, multiracial <int>,
    ## #   n_nonwhite <int>, prop_nonwhite <dbl>
…
