…
groups_race_income_central %>%
  filter(median_household_income > 130000) %>%
  arrange(desc(median_household_income)) %>%
  select(
    name, 
    median_household_income, 
    white, 
    black, 
    total_population, 
    everything()
  )
```

    ## # A tibble: 174 x 8
    ##    name  median_househol… white black total_population census_block_fi…
    ##    <chr>            <int> <int> <int>            <int> <chr>           
    ##  1 Bloc…           248250  1158    31             1268 370670025013    
    ##  2 Bloc…           233077   872     0              872 010730129112    
    ##  3 Bloc…           227143   778    32              946 420034736011    
    ##  4 Bloc…           217969  1268    13             1511 420034741012    
    ##  5 Bloc…           213571   715     2              770 420035633002    
    ##  6 Bloc…           211625   653    48              856 370670040103    
    ##  7 Bloc…           208167  2861    23             3127 010730127031    
    ##  8 Bloc…           204167   750   231             1086 540390011001    
    ##  9 Bloc…           203322  2803     0             3173 131171306123    
    ## 10 Bloc…           199821   429    25              532 420030201003    
    ## # … with 164 more rows, and 2 more variables: county_fips <int>,
    ## #   prop_nonwhite <dbl>
…
``` r
groups_race_income_central %>%
  filter(median_household_income < 10000) %>%
  arrange(median_household_income) %>%
  select(
    name, 
    median_household_income, 
    white, 
    black, 
    total_population, 
    everything()
  )
```

    ## # A tibble: 30 x 8
    ##    name  median_househol… white black total_population census_block_fi…
    ##    <chr>            <int> <int> <int>            <int> <chr>           
    ##  1 Bloc…             4391   754    35              999 540610102025    
    ##  2 Bloc…             5202   515    18              635 011250120003    
    ##  3 Bloc…             5556  1265    40             1380 011250114013    
    ##  4 Bloc…             7128  3189   170             4132 390099739012    
    ##  5 Bloc…             7973   490    16              506 211219301002    
    ##  6 Bloc…             8397     0  1061             1209 010730023031    
    ##  7 Bloc…             8457    41   299              340 010730101001    
    ##  8 Bloc…             8649    37   125              162 011030006002    
    ##  9 Bloc…             9005     0  1138             1170 010890012003    
    ## 10 Bloc…             9099   296   177              564 420034886002    
    ## # … with 20 more rows, and 2 more variables: county_fips <int>,
    ## #   prop_nonwhite <dbl>
…
