…
    ## Getting data from the 2014-2018 5-year ACS
    ## Getting data from the 2014-2018 5-year ACS

``` r
native_am_census %>%
  select(name, variable, estimate, prop, moe, american_indian_tot) %>%
  arrange(desc(american_indian_tot, prop)) 
```

    ## # A tibble: 196 x 6
    ##    name                variable         estimate    prop   moe american_indian_…
    ##    <chr>               <chr>               <dbl>   <dbl> <dbl>             <dbl>
    ##  1 Gwinnett County, G… cherokee              351 0.0368    194              9540
    ##  2 Gwinnett County, G… chippewa/ojibwe       105 0.011      68              9540
    ##  3 Gwinnett County, G… mexican_america…      828 0.0868    435              9540
    ##  4 Allegheny County, … cherokee              228 0.0246     96              9287
    ##  5 Allegheny County, … chippewa/ojibwe        54 0.00580    41              9287
    ##  6 Allegheny County, … caddo                  75 0.0081     51              9287
    ##  7 Allegheny County, … iroquois               86 0.00930    83              9287
    ##  8 Allegheny County, … pueblo                 49 0.0053     43              9287
    ##  9 Allegheny County, … other                  87 0.0094     60              9287
    ## 10 Allegheny County, … not_specified         173 0.0186    104              9287
    ## # … with 186 more rows

``` r
native_am_census %>%
  select(name, variable, estimate, prop, moe, american_indian_tot) %>%
  arrange(desc(prop))
```

    ## # A tibble: 196 x 6
    ##    name                    variable      estimate  prop   moe american_indian_t…
    ##    <chr>                   <chr>            <dbl> <dbl> <dbl>              <dbl>
    ##  1 Kemper County, Mississ… chocktaw           370 1        20                370
    ##  2 Swain County, North Ca… cherokee          4029 0.855   353               4713
    ##  3 Hart County, Kentucky   cherokee           102 0.823    46                124
    ##  4 Graham County, North C… cherokee           740 0.750   147                986
    ##  5 Jackson County, North … cherokee          3198 0.737   313               4337
    ##  6 Cattaraugus County, Ne… iroquois          2113 0.680   112               3106
    ##  7 Green County, Kentucky  chippewa/oji…      224 0.638   196                351
    ##  8 Grainger County, Tenne… cherokee            76 0.567    66                134
    ##  9 Itawamba County, Missi… chocktaw            73 0.557    60                131
    ## 10 Marshall County, West … cree               112 0.554    89                202
    ## # … with 186 more rows

``` r
native_am_census %>%
  select(name, variable, estimate, prop, moe, american_indian_tot) %>%
  arrange(desc(estimate))
```

    ## # A tibble: 196 x 6
    ##    name                 variable         estimate   prop   moe american_indian_…
    ##    <chr>                <chr>               <dbl>  <dbl> <dbl>             <dbl>
    ##  1 Swain County, North… cherokee             4029 0.855    353              4713
    ##  2 Jackson County, Nor… cherokee             3198 0.737    313              4337
    ##  3 Cattaraugus County,… iroquois             2113 0.680    112              3106
    ##  4 Lawrence County, Al… cherokee             1635 0.506    313              3230
    ##  5 Madison County, Ala… cherokee             1197 0.183    288              6527
    ##  6 Gwinnett County, Ge… mexican_america…      828 0.0868   435              9540
    ##  7 Greenville County, … mexican_america…      746 0.150    585              4956
    ##  8 Graham County, Nort… cherokee              740 0.750    147               986
    ##  9 Jefferson County, A… cherokee              555 0.116    264              4795
    ## 10 Morgan County, Alab… cherokee              553 0.268    249              2067
    ## # … with 186 more rows
…
``` r
hisp_latino_census %>%
  filter(variable != "mexico") %>%
  arrange(desc(prop))
```

    ## # A tibble: 699 x 7
    ##     fips name                  variable     estimate   moe hisp_latino_tot  prop
    ##    <int> <chr>                 <chr>           <dbl> <dbl>           <dbl> <dbl>
    ##  1 21061 Edmonson County, Ken… puerto_rico        70    67              94 0.745
    ##  2 36097 Schuyler County, New… puerto_rico       224    70             313 0.716
    ##  3 36013 Chautauqua County, N… puerto_rico      6770   447            9585 0.706
    ##  4 39099 Mahoning County, Ohio puerto_rico      9006   575           13489 0.668
    ##  5 39007 Ashtabula County, Oh… puerto_rico      2626   338            3997 0.657
    ##  6 54013 Calhoun County, West… puerto_rico        97    93             152 0.638
    ##  7 13055 Chattooga County, Ge… central_ame…      760   168            1230 0.618
    ##  8 54063 Monroe County, West … central_ame…       73    58             121 0.603
    ##  9 54065 Morgan County, West … south_ameri…      161   144             268 0.601
    ## 10 42049 Erie County, Pennsyl… puerto_rico      6787   637           11367 0.597
    ## # … with 689 more rows
…
