…
    ## Getting data from the 2014-2018 5-year ACS

``` r
all_counties %>%
  arrange(desc(white_household_below_poverty))
```

    ## # A tibble: 3,220 x 3
    ##     fips name                           white_household_below_poverty
    ##    <int> <chr>                                                  <dbl>
    ##  1  6037 Los Angeles County, California                         35794
    ##  2  4013 Maricopa County, Arizona                               34868
    ##  3 36047 Kings County, New York                                 26595
    ##  4 17031 Cook County, Illinois                                  24378
    ##  5 26163 Wayne County, Michigan                                 22709
    ##  6  6073 San Diego County, California                           19234
    ##  7 48201 Harris County, Texas                                   16271
    ##  8  6065 Riverside County, California                           14267
    ##  9  6059 Orange County, California                              14211
    ## 10 32003 Clark County, Nevada                                   14141
    ## # … with 3,210 more rows
…
