…
# SUMMARY

# Alabama, Georgia, and Mississippi include counties with highest 
# non-white proportion; some of these have majority-people of color populations
race_all_appalachia %>%
  arrange(desc(prop_nonwhite))
```

    ## # A tibble: 420 x 14
    ##     fips county_name state_name hispanic_latino total_population  white  black
    ##    <int> <chr>       <chr>                <dbl>            <dbl>  <dbl>  <dbl>
    ##  1  1087 Macon       Alabama                328            19054   2972  15583
    ##  2 28103 Noxubee     Mississip…             148            10828   2799   7820
    ##  3 28069 Kemper      Mississip…             132            10107   3439   6156
    ##  4 13135 Gwinnett    Georgia             188608           902298 345876 239090
    ##  5 28025 Clay        Mississip…             137            19808   7722  11793
    ##  6  1065 Hale        Alabama                130            14887   5898   8743
    ##  7 13097 Douglas     Georgia              13371           141840  59484  63998
    ##  8 28107 Panola      Mississip…             693            34243  16095  17021
    ##  9 28093 Marshall    Mississip…            1281            35787  17068  17118
    ## 10 28017 Chickasaw   Mississip…             815            17279   8627   7505
    ## # … with 410 more rows, and 7 more variables:
    ## #   american_indian_alaska_native <dbl>, asian <dbl>,
    ## #   native_hawaiian_pacific_islander <dbl>, other <dbl>, multiracial <dbl>,
    ## #   n_nonwhite <dbl>, prop_nonwhite <dbl>

``` r
# These are followed by some counties in NC, PA, SC, VA, TN, and OH
# none of these counties are majority-POC 
race_all_appalachia %>%
  filter(!(state_name %in% c("Alabama", "Georgia", "Mississippi"))) %>%
  arrange(desc(prop_nonwhite))
```

    ## # A tibble: 322 x 14
    ##     fips county_name state_name hispanic_latino total_population  white black
    ##    <int> <chr>       <chr>                <dbl>            <dbl>  <dbl> <dbl>
    ##  1 37067 Forsyth     North Car…           46913           371573 211844 95294
    ##  2 42053 Forest      Pennsylva…             466             7351   4518  2159
    ##  3 37173 Swain       North Car…             731            14254   8868    60
    ##  4 42089 Monroe      Pennsylva…           25830           167586 111965 22300
    ##  5 45083 Spartanburg South Car…           20137           302195 207276 61317
    ##  6 45045 Greenville  South Car…           44630           498402 342233 89068
    ##  7 51089 Henry (+ M… Virginia              2740            51588  36240 11246
    ##  8 47065 Hamilton    Tennessee            19538           357546 254697 68493
    ##  9 45021 Cherokee    South Car…            2392            56711  41353 11354
    ## 10 39099 Mahoning    Ohio                 13489           231064 175986 33736
    ## # … with 312 more rows, and 7 more variables:
    ## #   american_indian_alaska_native <dbl>, asian <dbl>,
    ## #   native_hawaiian_pacific_islander <dbl>, other <dbl>, multiracial <dbl>,
    ## #   n_nonwhite <dbl>, prop_nonwhite <dbl>
…
# Here, we see many counties where nearly all non-white population is Black
# These counties are largely in Alabama and Mississippi
props_all_appalachia %>% 
  arrange(desc(prop_poc_black)) %>%
  select(
    county_name, 
    state_name, 
    prop_poc_black, 
    total_population, 
    prop_nonwhite
  )
```

    ## # A tibble: 420 x 5
    ##    county_name state_name  prop_poc_black total_population prop_nonwhite
    ##    <chr>       <chr>                <dbl>            <dbl>         <dbl>
    ##  1 Coosa       Alabama              0.985            10855         0.347
    ##  2 Clay        Mississippi          0.976            19808         0.610
    ##  3 Noxubee     Mississippi          0.974            10828         0.742
    ##  4 Hale        Alabama              0.973            14887         0.604
    ##  5 Macon       Alabama              0.969            19054         0.844
    ##  6 Choctaw     Mississippi          0.958             8321         0.325
    ##  7 Yalobusha   Mississippi          0.955            12421         0.419
    ##  8 Winston     Mississippi          0.953            18358         0.499
    ##  9 Panola      Mississippi          0.938            34243         0.530
    ## 10 Monroe      Mississippi          0.933            35840         0.330
    ## # … with 410 more rows

``` r
# This pattern is true for Hispanic/Latinx populations, but less extreme
props_all_appalachia %>% 
  arrange(desc(prop_poc_hispanic)) %>%
  select(
    county_name, 
    state_name, 
    prop_poc_hispanic,
    total_population,
    prop_nonwhite
  )
```

    ## # A tibble: 420 x 5
    ##    county_name state_name     prop_poc_hispanic total_population prop_nonwhite
    ##    <chr>       <chr>                      <dbl>            <dbl>         <dbl>
    ##  1 Murray      Georgia                    0.862            39557       0.171  
    ##  2 Whitfield   Georgia                    0.844           103849       0.409  
    ##  3 Magoffin    Kentucky                   0.836            12666       0.00434
    ##  4 Gilmer      Georgia                    0.822            29922       0.139  
    ##  5 Clinton     Kentucky                   0.751            10211       0.0377 
    ##  6 DeKalb      Alabama                    0.743            71200       0.193  
    ##  7 Calhoun     West Virginia              0.741             7396       0.0277 
    ##  8 Alleghany   North Carolina             0.740            10973       0.130  
    ##  9 Franklin    Alabama                    0.738            31542       0.229  
    ## 10 Marshall    Alabama                    0.726            95145       0.188  
    ## # … with 410 more rows

``` r
props_all_appalachia %>% 
  arrange(desc(prop_poc_native)) %>%
  select(
    county_name, 
    state_name, 
    prop_poc_native,
    total_population,
    prop_nonwhite
  )
```

    ## # A tibble: 420 x 5
    ##    county_name state_name     prop_poc_native total_population prop_nonwhite
    ##    <chr>       <chr>                    <dbl>            <dbl>         <dbl>
    ##  1 Graham      North Carolina           0.796             8557       0.132  
    ##  2 Swain       North Carolina           0.736            14254       0.378  
    ##  3 Green       Kentucky                 0.510            11023       0.0552 
    ##  4 Lewis       Kentucky                 0.497            13490       0.0218 
    ##  5 Clay        West Virginia            0.479             8785       0.00808
    ##  6 Rockcastle  Kentucky                 0.417            16827       0.0265 
    ##  7 Jackson     North Carolina           0.406            42256       0.191  
    ##  8 Cattaraugus New York                 0.315            77686       0.0935 
    ##  9 Jackson     West Virginia            0.287            29018       0.0295 
    ## 10 Wolfe       Kentucky                 0.286             7223       0.0145 
    ## # … with 410 more rows
…
# The counties with the largest proportion of 
# people who identify as multiracial are in counties with low (< 17%)
# non-white populations
props_all_appalachia %>%
  arrange(desc(prop_poc_multiracial)) %>%
  select(
    county_name, 
    state_name, 
    prop_poc_multiracial,
    total_population,
    prop_nonwhite
  )
```

    ## # A tibble: 420 x 5
    ##    county_name state_name    prop_poc_multiracial total_population prop_nonwhite
    ##    <chr>       <chr>                        <dbl>            <dbl>         <dbl>
    ##  1 Grundy      Tennessee                    0.812            13331       0.164  
    ##  2 Highland    Virginia                     0.727             2214       0.00497
    ##  3 Van Buren   Tennessee                    0.689             5704       0.0400 
    ##  4 Menifee     Kentucky                     0.667             6405       0.00562
    ##  5 Estill      Kentucky                     0.620            14313       0.0265 
    ##  6 Vinton      Ohio                         0.605            13111       0.0338 
    ##  7 Jackson     Kentucky                     0.582            13373       0.00501
    ##  8 Craig       Virginia                     0.571             5113       0.00411
    ##  9 Mason       West Virginia                0.564            26939       0.0324 
    ## 10 Pickens     Georgia                      0.562            30832       0.127  
    ## # … with 410 more rows
…
    ## # A tibble: 1 x 2
    ##   mean_prop_nonwhite median_prop_nonwhite
    ##                <dbl>                <dbl>
    ## 1             0.0630               0.0544

``` r
race_central_appalachia %>%
  arrange(desc(n_nonwhite))
```

    ## # A tibble: 185 x 14
    ##     fips county_name state_name hispanic_latino total_population  white black
    ##    <int> <chr>       <chr>                <dbl>            <dbl>  <dbl> <dbl>
    ##  1 47065 Hamilton    Tennessee            19538           357546 254697 68493
    ##  2 47093 Knox        Tennessee            18777           456185 376585 39963
    ##  3 54039 Kanawha     West Virg…            2025           185710 163003 13336
    ##  4 54003 Berkeley    West Virg…            4795           113495  95601  8207
    ##  5 51121 Montgomery… Virginia              3110            97997  81916  4302
    ##  6 51089 Henry (+ M… Virginia              2740            51588  36240 11246
    ##  7 47011 Bradley     Tennessee             6217           104557  89794  4941
    ##  8 47179 Washington  Tennessee             4273           127055 112918  5084
    ##  9 54061 Monongalia  West Virg…            2182           105252  92582  3795
    ## 10 47063 Hamblen     Tennessee             7374            63740  52050  2227
    ## # … with 175 more rows, and 7 more variables:
    ## #   american_indian_alaska_native <dbl>, asian <dbl>,
    ## #   native_hawaiian_pacific_islander <dbl>, other <dbl>, multiracial <dbl>,
    ## #   n_nonwhite <dbl>, prop_nonwhite <dbl>

``` r
race_central_appalachia %>%
  arrange(desc(prop_nonwhite))
```

    ## # A tibble: 185 x 14
    ##     fips county_name state_name hispanic_latino total_population  white black
    ##    <int> <chr>       <chr>                <dbl>            <dbl>  <dbl> <dbl>
    ##  1 51089 Henry (+ M… Virginia              2740            51588  36240 11246
    ##  2 47065 Hamilton    Tennessee            19538           357546 254697 68493
    ##  3 54021 Gilmer      West Virg…             328             8205   6645   900
    ##  4 47063 Hamblen     Tennessee             7374            63740  52050  2227
    ##  5 47093 Knox        Tennessee            18777           456185 376585 39963
    ##  6 54037 Jefferson   West Virg…            3111            56179  46896  3524
    ##  7 51121 Montgomery… Virginia              3110            97997  81916  4302
    ##  8 47061 Grundy      Tennessee              164            13331  11150    89
    ##  9 54003 Berkeley    West Virg…            4795           113495  95601  8207
    ## 10 47177 Warren      Tennessee             3612            40454  34601   569
    ## # … with 175 more rows, and 7 more variables:
    ## #   american_indian_alaska_native <dbl>, asian <dbl>,
    ## #   native_hawaiian_pacific_islander <dbl>, other <dbl>, multiracial <dbl>,
    ## #   n_nonwhite <dbl>, prop_nonwhite <dbl>
…
# solution end
```

Explore the data a bit (arrange, etc.). What do you notice? How is
looking at these data different from looking at counties?

``` r
# solution begin
central_appalachian_census_tracts %>%
  arrange(desc(prop_nonwhite))
```

    ## # A tibble: 1,608 x 14
    ##    fips  county_fips name  hispanic_latino total_population white black
    ##    <chr>       <int> <chr>           <dbl>            <dbl> <dbl> <dbl>
    ##  1 4706…       47065 Cens…               5             3760   251  3424
    ##  2 4706…       47065 Cens…              26             2257   163  2068
    ##  3 4706…       47065 Cens…               0             3792   349  3413
    ##  4 4706…       47065 Cens…              28             2623   287  2263
    ##  5 4706…       47065 Cens…               8             3259   358  2764
    ##  6 4706…       47065 Cens…              11             3231   446  2629
    ##  7 4706…       47065 Cens…             133             3090   474  2340
    ##  8 4709…       47093 Cens…             119             3091   531  2256
    ##  9 2106…       21061 Cens…              34              280    53   133
    ## 10 4706…       47065 Cens…             199             6162  1382  4444
    ## # … with 1,598 more rows, and 7 more variables:
    ## #   american_indian_alaska_native <dbl>, asian <dbl>,
    ## #   native_hawaiian_pacific_islander <dbl>, other <dbl>, multiracial <dbl>,
    ## #   n_nonwhite <dbl>, prop_nonwhite <dbl>

``` r
central_appalachian_census_tracts %>%
  mutate(prop_black = black / total_population) %>%
  arrange(desc(prop_black))
```

    ## # A tibble: 1,608 x 15
    ##    fips  county_fips name  hispanic_latino total_population white black
    ##    <chr>       <int> <chr>           <dbl>            <dbl> <dbl> <dbl>
    ##  1 4706…       47065 Cens…              26             2257   163  2068
    ##  2 4706…       47065 Cens…               5             3760   251  3424
    ##  3 4706…       47065 Cens…               0             3792   349  3413
    ##  4 4706…       47065 Cens…              28             2623   287  2263
    ##  5 4706…       47065 Cens…               8             3259   358  2764
    ##  6 4706…       47065 Cens…              11             3231   446  2629
    ##  7 4706…       47065 Cens…             133             3090   474  2340
    ##  8 4709…       47093 Cens…             119             3091   531  2256
    ##  9 4706…       47065 Cens…             199             6162  1382  4444
    ## 10 4709…       47093 Cens…             113             1440   362   941
    ## # … with 1,598 more rows, and 8 more variables:
    ## #   american_indian_alaska_native <dbl>, asian <dbl>,
    ## #   native_hawaiian_pacific_islander <dbl>, other <dbl>, multiracial <dbl>,
    ## #   n_nonwhite <dbl>, prop_nonwhite <dbl>, prop_black <dbl>

``` r
central_appalachian_census_tracts %>%
  mutate(prop_hispanic = hispanic_latino / total_population) %>%
  arrange(desc(prop_hispanic))
```

    ## # A tibble: 1,608 x 15
    ##    fips  county_fips name  hispanic_latino total_population white black
    ##    <chr>       <int> <chr>           <dbl>            <dbl> <dbl> <dbl>
    ##  1 4706…       47063 Cens…            1186             3288  1728   301
    ##  2 4706…       47065 Cens…            1786             5575  2347  1276
    ##  3 4706…       47065 Cens…             441             1418   481   474
    ##  4 4706…       47065 Cens…             682             2228   516   934
    ##  5 4706…       47063 Cens…            1635             6594  4239   559
    ##  6 4701…       47011 Cens…             709             2889  1981   122
    ##  7 4715…       47155 Cens…             728             3044  2145    73
    ##  8 4706…       47063 Cens…            1512             6917  4619   481
    ##  9 4710…       47105 Cens…             984             4874  3636   170
    ## 10 4714…       47141 Cens…            1036             5531  4399    24
    ## # … with 1,598 more rows, and 8 more variables:
    ## #   american_indian_alaska_native <dbl>, asian <dbl>,
    ## #   native_hawaiian_pacific_islander <dbl>, other <dbl>, multiracial <dbl>,
    ## #   n_nonwhite <dbl>, prop_nonwhite <dbl>, prop_hispanic <dbl>

``` r
central_appalachian_census_tracts %>%
  filter(str_detect(name, "Kentucky"))
```

    ## # A tibble: 318 x 14
    ##    fips  county_fips name  hispanic_latino total_population white black
    ##    <chr>       <int> <chr>           <dbl>            <dbl> <dbl> <dbl>
    ##  1 2100…       21001 Cens…              28             1533  1469     0
    ##  2 2100…       21001 Cens…               0             1942  1855    28
    ##  3 2100…       21001 Cens…             116             3263  3129     0
    ##  4 2100…       21001 Cens…             108             4725  4185   383
    ##  5 2100…       21001 Cens…              81             4170  3900   144
    ##  6 2100…       21001 Cens…               0             2152  2001    68
    ##  7 2100…       21001 Cens…              30             1456  1426     0
    ##  8 2101…       21011 Cens…              67             1989  1757   102
    ##  9 2101…       21011 Cens…              99             6533  6246    26
    ## 10 2101…       21011 Cens…              29             3746  3675    13
    ## # … with 308 more rows, and 7 more variables:
    ## #   american_indian_alaska_native <dbl>, asian <dbl>,
    ## #   native_hawaiian_pacific_islander <dbl>, other <dbl>, multiracial <dbl>,
    ## #   n_nonwhite <dbl>, prop_nonwhite <dbl>
…
    ## Getting data from the 2014-2018 5-year ACS

``` r
all_counties_whp %>%
  arrange(desc(white_households_below_poverty))
```

    ## # A tibble: 3,220 x 5
    ##     fips name              n_households n_white_househol… white_households_belo…
    ##    <int> <chr>                    <dbl>             <dbl>                  <dbl>
    ##  1  6037 Los Angeles Coun…      2207265            652397                  35794
    ##  2  4013 Maricopa County,…       996345            621500                  34868
    ##  3 36047 Kings County, Ne…       585424            212328                  26595
    ##  4 17031 Cook County, Ill…      1183806            545767                  24378
    ##  5 26163 Wayne County, Mi…       414597            224241                  22709
    ##  6  6073 San Diego County…       753761            388931                  19234
    ##  7 48201 Harris County, T…      1081602            370193                  16271
    ##  8  6065 Riverside County…       524557            228066                  14267
    ##  9  6059 Orange County, C…       741721            352035                  14211
    ## 10 32003 Clark County, Ne…       488867            240391                  14141
    ## # … with 3,210 more rows

``` r
all_counties_whp %>%
  mutate(
    prop_households_white_poor = white_households_below_poverty / n_households
  ) %>%
  arrange(desc(prop_households_white_poor))
```

    ## # A tibble: 3,220 x 6
    ##     fips name   n_households n_white_househol… white_household… prop_households…
    ##    <int> <chr>         <dbl>             <dbl>            <dbl>            <dbl>
    ##  1 21051 Clay …         5599              5469             1788            0.319
    ##  2 21013 Bell …         7076              6920             2199            0.311
    ##  3 21095 Harla…         7707              7409             2347            0.305
    ##  4 21189 Owsle…         1158              1150              344            0.297
    ##  5 21065 Estil…         3719              3678             1103            0.297
    ##  6 21147 McCre…         4361              4337             1287            0.295
    ##  7 21237 Wolfe…         1819              1810              532            0.292
    ##  8 21025 Breat…         3679              3599             1059            0.288
    ##  9 21133 Letch…         6693              6561             1861            0.278
    ## 10 21129 Lee C…         1527              1511              419            0.274
    ## # … with 3,210 more rows
…
